module online_shop

go 1.17

require (
	github.com/dgrijalva/jwt-go v3.2.0+incompatible
	github.com/gin-gonic/gin v1.7.4
	github.com/jackc/pgx v3.6.2+incompatible
	github.com/jackc/pgx/v4 v4.15.0
	github.com/lib/pq v1.10.4
	go.mongodb.org/mongo-driver v1.7.3
)

require (
	github.com/gin-contrib/sse v0.1.0 // indirect
	github.com/go-playground/locales v0.13.0 // indirect
	github.com/go-playground/universal-translator v0.17.0 // indirect
	github.com/go-playground/validator/v10 v10.4.1 // indirect
	github.com/go-stack/stack v1.8.0 // indirect
	github.com/gofrs/uuid v4.2.0+incompatible // indirect
	github.com/golang/protobuf v1.3.3 // indirect
	github.com/golang/snappy v0.0.1 // indirect
	github.com/jackc/chunkreader/v2 v2.0.1 // indirect
	github.com/jackc/fake v0.0.0-20150926172116-812a484cc733 // indirect
	github.com/jackc/pgconn v1.11.0 // indirect
	github.com/jackc/pgio v1.0.0 // indirect
	github.com/jackc/pgpassfile v1.0.0 // indirect
	github.com/jackc/pgproto3/v2 v2.2.0 // indirect
	github.com/jackc/pgservicefile v0.0.0-20200714003250-2b9c44734f2b // indirect
	github.com/jackc/pgtype v1.10.0 // indirect
	github.com/json-iterator/go v1.1.9 // indirect
	github.com/klauspost/compress v1.13.6 // indirect
	github.com/leodido/go-urn v1.2.0 // indirect
	github.com/mattn/go-isatty v0.0.12 // indirect
	github.com/modern-go/concurrent v0.0.0-20180228061459-e0a39a4cb421 // indirect
	github.com/modern-go/reflect2 v0.0.0-20180701023420-4b7aa43c6742 // indirect
	github.com/pkg/errors v0.9.1 // indirect
	github.com/shopspring/decimal v1.3.1 // indirect
	github.com/ugorji/go/codec v1.1.7 // indirect
	github.com/xdg-go/pbkdf2 v1.0.0 // indirect
	github.com/xdg-go/scram v1.0.2 // indirect
	github.com/xdg-go/stringprep v1.0.2 // indirect
	github.com/youmark/pkcs8 v0.0.0-20181117223130-1be2e3e5546d // indirect
	golang.org/x/crypto v0.0.0-20210711020723-a769d52b0f97 // indirect
	golang.org/x/sync v0.0.0-20190911185100-cd5d95a43a6e // indirect
	golang.org/x/sys v0.0.0-20210615035016-665e8c7367d1 // indirect
	golang.org/x/text v0.3.6 // indirect
	gopkg.in/yaml.v2 v2.2.8 // indirect
)
